-------------------------------------------------------------------------------
Test set: inventory.model.TestClass_LookupProduct
-------------------------------------------------------------------------------
Tests run: 5, Failures: 0, Errors: 0, Skipped: 0, Time elapsed: 0 s - in inventory.model.TestClass_LookupProduct
